^C:\WORK\CODE\SELF-STUDY\CONSOLEAPPLICATION1\CONSOLEAPPLICATION1\ADD.CPP|C:\WORK\CODE\SELF-STUDY\CONSOLEAPPLICATION1\CONSOLEAPPLICATION1\CONSOLEAPPLICATION1.CPP
C:\WORK\CODE\SELF-STUDY\CONSOLEAPPLICATION1\CONSOLEAPPLICATION1\DEBUG\VC142.PDB
C:\WORK\CODE\SELF-STUDY\CONSOLEAPPLICATION1\CONSOLEAPPLICATION1\DEBUG\VC142.IDB
C:\WORK\CODE\SELF-STUDY\CONSOLEAPPLICATION1\CONSOLEAPPLICATION1\DEBUG\CONSOLEAPPLICATION1.OBJ
C:\WORK\CODE\SELF-STUDY\CONSOLEAPPLICATION1\CONSOLEAPPLICATION1\DEBUG\ADD.OBJ
^C:\WORK\CODE\SELF-STUDY\CONSOLEAPPLICATION1\CONSOLEAPPLICATION1\ADD.CPP
C:\WORK\CODE\SELF-STUDY\CONSOLEAPPLICATION1\CONSOLEAPPLICATION1\DEBUG\VC142.PDB
^C:\WORK\CODE\SELF-STUDY\CONSOLEAPPLICATION1\CONSOLEAPPLICATION1\CONSOLEAPPLICATION1.CPP
C:\WORK\CODE\SELF-STUDY\CONSOLEAPPLICATION1\CONSOLEAPPLICATION1\DEBUG\VC142.PDB
C:\WORK\CODE\SELF-STUDY\CONSOLEAPPLICATION1\CONSOLEAPPLICATION1\DEBUG\VC142.IDB
C:\WORK\CODE\SELF-STUDY\CONSOLEAPPLICATION1\CONSOLEAPPLICATION1\DEBUG\CONSOLEAPPLICATION1.OBJ
